{
    "prepare_queue": {
        "installed": [],
        "uninstalled": []
    },
    "config_munge": {
        "files": {}
    },
    "installed_plugins": {
        "cordova-plugin-whitelist": {
            "PACKAGE_NAME": "HelloCordova"
        },
        "cordova-plugin-console": {
            "PACKAGE_NAME": "HelloCordova"
        },
        "com.shazron.cordova.plugin.keychainutil": {
            "PACKAGE_NAME": "HelloCordova"
        },
        "com-badrit-macaddress": {
            "PACKAGE_NAME": "HelloCordova"
        },
        "com.phonegap.plugins.PushPlugin": {
            "PACKAGE_NAME": "HelloCordova"
        },
        "cordova-plugin-file": {
            "PACKAGE_NAME": "HelloCordova"
        },
        "cordova-plugin-file-transfer": {
            "PACKAGE_NAME": "HelloCordova"
        },
        "hu.dpal.phonegap.plugins.SpinnerDialog": {
            "PACKAGE_NAME": "HelloCordova"
        },
        "cordova-plugin-network-information": {
            "PACKAGE_NAME": "HelloCordova"
        },
        "cordova-plugin-x-toast": {
            "PACKAGE_NAME": "HelloCordova"
        },
        "cordova-plugin-splashscreen": {
            "PACKAGE_NAME": "HelloCordova"
        },
        "cordova-plugin-inappbrowser": {
            "PACKAGE_NAME": "HelloCordova"
        },
        "cordova-plugin-x-socialsharing": {
            "PACKAGE_NAME": "HelloCordova"
        },
        "cordova-plugin-vibration": {
            "PACKAGE_NAME": "HelloCordova"
        },
        "cordova-plugin-dialogs": {
            "PACKAGE_NAME": "HelloCordova"
        },
        "com.jkhax0r.bluetoothle": {
            "PACKAGE_NAME": "HelloCordova"
        },
        "cordova-plugin-ble-central": {
            "PACKAGE_NAME": "HelloCordova"
        },
        "cordova-plugin-device": {
            "PACKAGE_NAME": "HelloCordova"
        },
        "cordova-plugin-camera": {
            "PACKAGE_NAME": "Cardio Test"
        }
    },
    "dependent_plugins": {}
}